<?xml version="1.0" encoding="UTF-8"?>
<svg width="1929px" height="147px" viewBox="0 0 1929 147" version="1.1" xmlns="http://www.w3.org/2000/svg" xmlns:xlink="http://www.w3.org/1999/xlink">
    <!-- Generator: Sketch 63.1 (92452) - https://sketch.com -->
    <title>gezackte_kante-unten</title>
    <desc>Created with Sketch.</desc>
    <g id="planted.shopify_styling" stroke="none" stroke-width="1" fill="none" fill-rule="evenodd">
        <path d="M1617.88921,0 L1680.87378,33.1710307 L1751.16855,22.493037 L1792.58675,39.7418728 L1835.51015,48.9707731 L1929,33.1710307 L1929,44.3850693 L1929,51.4884211 L1929,146.567859 L0,146.567859 L0,51.4884211 L0,44.3850693 L0,33.1710307 L80.839178,44.6704553 L108.645709,42.7846694 L125.076292,44.3850693 L165.441,47.7369557 L278.054434,25.0403758 L364.786113,37.9094228 L409.593,51.488 L511.071,51.488 L575.3732,44.4018567 L617.34,51.488 L689.473,51.488 L746.898977,41.8054696 L826.605267,27.3233986 L870.217183,44.980519 C887.536493,51.9925737 906.47395,54.0120164 924.882475,50.8098879 L985.20487,40.31692 L1017.45727,46.4576002 L1115.82238,47.7459097 L1199.39368,29.6371186 L1270.81494,37.0953086 L1312.29995,29.3036156 L1330.9586,19.5438199 L1407.507,51.488 L1413.95,51.488 L1502.92416,23.2315081 L1617.88921,0 Z" id="gezackte_kante-unten" fill="#744a9e" transform="translate(964.500000, 73.283930) rotate(180.000000) translate(-964.500000, -73.283930) "></path>
    </g>
</svg>